site_name,transaction_number,device_mac,card_type,pkg_name,account_date,net_sales,tax_fed,tax_prov,purchase_amount
PROVIDENCE HEALTH CARE ST PAUL HOSPITAL,545392-0_140,F018988EB3F5,MasterCard,4 Hours,2019-01-01,5.95,0.3,0.42,6.66
PROVIDENCE HEALTH CARE ST PAUL HOSPITAL,545591-0_140,18EE698155FD,Visa,1 Week,2019-01-02,28.95,1.45,2.03,32.42
PROVIDENCE HEALTH CARE ST PAUL HOSPITAL,545730-0_141,34E6AD8ED3B1,Visa,24 Hours,2019-01-03,9.95,0.5,0.7,11.14
PROVIDENCE HEALTH CARE ST PAUL HOSPITAL,545765-0_141,ACAFB9BDA28C,Visa,24 Hours,2019-01-04,9.95,0.5,0.7,11.14
PROVIDENCE HEALTH CARE ST PAUL HOSPITAL,545972-0_141,98B8E3AFF78D,Visa,1 Week,2019-01-05,28.95,1.45,2.03,32.42
PROVIDENCE HEALTH CARE ST PAUL HOSPITAL,546125-0_141,CCB0DABA1E7B,Visa,24 Hours,2019-01-06,9.95,0.5,0.7,11.14
PROVIDENCE HEALTH CARE ST PAUL HOSPITAL,546379-0_141,80006E8A908F,Visa,30 Days,2019-01-08,35.0,1.75,2.45,39.2
PROVIDENCE HEALTH CARE ST PAUL HOSPITAL,546538-0_141,D8BB2C14D0BF,Visa,72 Hours,2019-01-09,18.95,0.95,1.33,21.22
PROVIDENCE HEALTH CARE ST PAUL HOSPITAL,546558-0_141,1C9E46C54A6A,Visa,24 Hours,2019-01-09,9.95,0.5,0.7,11.14
PROVIDENCE HEALTH CARE ST PAUL HOSPITAL,546610-0_141,EA2AD4B02C76,Visa,24 Hours,2019-01-10,9.95,0.5,0.7,11.14
PROVIDENCE HEALTH CARE ST PAUL HOSPITAL,546786-0_141,6476BA8AECAC,MasterCard,72 Hours,2019-01-11,18.95,0.95,1.33,21.22
PROVIDENCE HEALTH CARE ST PAUL HOSPITAL,546870-0_141,E82A44B02549,Visa,24 Hours,2019-01-11,9.95,0.5,0.7,11.14
PROVIDENCE HEALTH CARE ST PAUL HOSPITAL,546897-0_141,007147961ED3,Visa,24 Hours,2019-01-11,9.95,0.5,0.7,11.14
PROVIDENCE HEALTH CARE ST PAUL HOSPITAL,547071-0_141,70700D1D0563,MasterCard,1 Week,2019-01-13,28.95,1.45,2.03,32.42
PROVIDENCE HEALTH CARE ST PAUL HOSPITAL,547152-0_141,70480FAF82A2,Visa,1 Week,2019-01-13,28.95,1.45,2.03,32.42
PROVIDENCE HEALTH CARE ST PAUL HOSPITAL,547471-0_141,CC4463C3337D,Visa,24 Hours,2019-01-15,9.95,0.5,0.7,11.14
PROVIDENCE HEALTH CARE ST PAUL HOSPITAL,547505-0_141,001F3A316AF2,Visa,30 Days,2019-01-15,35.0,1.75,2.45,39.2
PROVIDENCE HEALTH CARE ST PAUL HOSPITAL,547574-0_141,B88A6087E0B0,MasterCard,1 Week,2019-01-16,28.95,1.45,2.03,32.42
PROVIDENCE HEALTH CARE ST PAUL HOSPITAL,547720-0_141,003DE8E8CEB5,MasterCard,72 Hours,2019-01-17,18.95,0.95,1.33,21.22
PROVIDENCE HEALTH CARE ST PAUL HOSPITAL,547826-0_141,94D7718F177F,Visa,24 Hours,2019-01-17,9.95,0.5,0.7,11.14
PROVIDENCE HEALTH CARE ST PAUL HOSPITAL,547885-0_141,7C2A31ACC308,Visa,24 Hours,2019-01-18,9.95,0.5,0.7,11.14
PROVIDENCE HEALTH CARE ST PAUL HOSPITAL,547925-0_141,C49880908FFF,MasterCard,72 Hours,2019-01-18,18.95,0.95,1.33,21.22
PROVIDENCE HEALTH CARE ST PAUL HOSPITAL,547951-0_141,50BC96CECE61,Visa,1 Hour,2019-01-18,2.95,0.15,0.21,3.3
PROVIDENCE HEALTH CARE ST PAUL HOSPITAL,548110-0_141,24E3145C9E73,Visa,1 Week,2019-01-19,28.95,1.45,2.03,32.42
PROVIDENCE HEALTH CARE ST PAUL HOSPITAL,548446-0_141,8C859098CBCE,Visa,72 Hours,2019-01-22,18.95,0.95,1.33,21.22
PROVIDENCE HEALTH CARE ST PAUL HOSPITAL,548473-0_141,503237018AC2,MasterCard,72 Hours,2019-01-22,18.95,0.95,1.33,21.22
PROVIDENCE HEALTH CARE ST PAUL HOSPITAL,548579-0_141,14568EBF754C,MasterCard,30 Days,2019-01-23,35.0,1.75,2.45,39.2
PROVIDENCE HEALTH CARE ST PAUL HOSPITAL,548678-0_141,F0796001D626,MasterCard,4 Hours,2019-01-23,5.95,0.3,0.42,6.66
PROVIDENCE HEALTH CARE ST PAUL HOSPITAL,548717-0_141,78009E9428EA,Visa,72 Hours,2019-01-23,18.95,0.95,1.33,21.22
PROVIDENCE HEALTH CARE ST PAUL HOSPITAL,548811-0_141,E4B318E08841,Visa,24 Hours,2019-01-24,9.95,0.5,0.7,11.14
PROVIDENCE HEALTH CARE ST PAUL HOSPITAL,548824-0_141,4C32759BA527,Visa,4 Hours,2019-01-24,5.95,0.3,0.42,6.66
PROVIDENCE HEALTH CARE ST PAUL HOSPITAL,548848-0_141,009D6B400953,Visa,1 Week,2019-01-24,28.95,1.45,2.03,32.42
PROVIDENCE HEALTH CARE ST PAUL HOSPITAL,548862-0_141,ACD1B8E558CB,Visa,72 Hours,2019-01-24,18.95,0.95,1.33,21.22
PROVIDENCE HEALTH CARE ST PAUL HOSPITAL,549104-0_141,186590DE9A61,Visa,24 Hours,2019-01-26,9.95,0.5,0.7,11.14
PROVIDENCE HEALTH CARE ST PAUL HOSPITAL,549106-0_141,8CFE57556FDA,Visa,72 Hours,2019-01-26,18.95,0.95,1.33,21.22
PROVIDENCE HEALTH CARE ST PAUL HOSPITAL,549235-0_141,503237018AC2,MasterCard,72 Hours,2019-01-27,18.95,0.95,1.33,21.22
PROVIDENCE HEALTH CARE ST PAUL HOSPITAL,549242-0_141,D868C3E77B63,MasterCard,30 Days,2019-01-27,35.0,1.75,2.45,39.2
PROVIDENCE HEALTH CARE ST PAUL HOSPITAL,549254-0_141,186590DE9A61,Visa,24 Hours,2019-01-27,9.95,0.5,0.7,11.14
PROVIDENCE HEALTH CARE ST PAUL HOSPITAL,549324-0_141,348A7BF5E800,MasterCard,30 Days,2019-01-27,35.0,1.75,2.45,39.2
PROVIDENCE HEALTH CARE ST PAUL HOSPITAL,549362-0_141,ACD1B8E558CB,Visa,24 Hours,2019-01-28,9.95,0.5,0.7,11.14
PROVIDENCE HEALTH CARE ST PAUL HOSPITAL,549373-0_141,78009E9428EA,Visa,72 Hours,2019-01-28,18.95,0.95,1.33,21.22
PROVIDENCE HEALTH CARE ST PAUL HOSPITAL,549377-0_141,5CF7E620D6ED,Visa,72 Hours,2019-01-28,18.95,0.95,1.33,21.22
PROVIDENCE HEALTH CARE ST PAUL HOSPITAL,549442-0_141,5CF5DA0DE8F4,MasterCard,1 Week,2019-01-28,28.95,1.45,2.03,32.42
PROVIDENCE HEALTH CARE ST PAUL HOSPITAL,549571-0_141,10F1F288CE60,MasterCard,24 Hours,2019-01-29,9.95,0.5,0.7,11.14
PROVIDENCE HEALTH CARE ST PAUL HOSPITAL,549603-0_141,186590DE9A61,Visa,24 Hours,2019-01-29,9.95,0.5,0.7,11.14
PROVIDENCE HEALTH CARE ST PAUL HOSPITAL,549685-0_141,A45E60B9BD8D,Visa,1 Week,2019-01-30,28.95,1.45,2.03,32.42
PROVIDENCE HEALTH CARE ST PAUL HOSPITAL,549769-0_141,186590DE9A61,Visa,1 Week,2019-01-30,28.95,1.45,2.03,32.42
PROVIDENCE HEALTH CARE ST PAUL HOSPITAL,549833-0_141,78009E9428EA,Visa,1 Week,2019-01-31,28.95,1.45,2.03,32.42
PROVIDENCE HEALTH CARE ST PAUL HOSPITAL,549954-0_141,C869CD9B17BC,Visa,24 Hours,2019-01-31,9.95,0.5,0.7,11.14
